# -*- coding: utf-8 mode: shell-script -*-
# $Id$
#
# This second example reproduces the ground-state calculation present in
# [W.-C. Liu et al, Phys. Rev. Lett. 83, 520 (1999)]
# The total energy reproduces the -2.238Ha quoted in the paper.

CalculationMode = gs
Dimensions = 2
fromScratch = yes

a = 1
%Species
  "Helium1D" | species_user_defined | potential_formula | "-2/sqrt(a+(x)^2) -2/sqrt(a+(y)^2)+1/sqrt(a+(x-y)^2)" | valence | 1
%

%Coordinates
  "Helium1D" | 0.00 | 0.00
%

Radius  = 7.0
Spacing = 0.14

TheoryLevel = independent_particles

EigenSolverTolerance = 1.0e-4




