# -*- coding: utf-8 mode: shell-script -*-
# $Id$

CalculationMode = vib_modes
FromScratch = yes

BoxShape = minimum
Spacing = 0.4
Radius = 6

%Coordinates
  "H"  | 0 | 0 | 0.053910
  "Li" | 0 | 0 | 3.058523
%

LRConvAbsDens = 1e-6

