# -*- coding: utf-8 mode: shell-script -*-
# $Id$
#

FromScratch = yes

CalculationMode = gs

Dimensions = 1
Spacing = 0.2
Radius = 50.0
ExtraStates = 1

TheoryLevel = independent_particles

%Species
  "Neon1D" | species_user_defined | potential_formula | "-10/sqrt(0.25 + x^2)" | valence | 10
%

%Coordinates
  "Neon1D" | 0
%

ConvRelDens = 1e-7
ConvEigenError = yes
Preconditioner = no



